<svg width="312" height="216" viewBox="0 0 312 216" fill="none" xmlns="http://www.w3.org/2000/svg">
<path d="M0 32C0 14.3269 14.3269 0 32 0H280C297.673 0 312 14.3269 312 32V216H0V32Z" fill="#E5DEFE"/>
<mask id="mask0_13531_57336" style="mask-type:alpha" maskUnits="userSpaceOnUse" x="0" y="0" width="312" height="216">
<path d="M0 32C0 14.3269 14.3269 0 32 0H280C297.673 0 312 14.3269 312 32V216H0V32Z" fill="#BCBCBC"/>
</mask>
<g mask="url(#mask0_13531_57336)">
<g filter="url(#filter0_d_13531_57336)">
<rect x="30" y="30" width="252" height="264" rx="20" fill="white"/>
<path d="M53.402 57.698H50.448V56.662H57.532V57.698H54.564V66H53.402V57.698ZM60.3751 66.168C59.7031 66.168 59.1151 66.0093 58.6111 65.692C58.1071 65.3747 57.7151 64.9453 57.4351 64.404C57.1644 63.8627 57.0291 63.2653 57.0291 62.612C57.0291 61.9587 57.1644 61.3613 57.4351 60.82C57.7151 60.2787 58.1071 59.854 58.6111 59.546C59.1151 59.2287 59.7031 59.07 60.3751 59.07C61.0471 59.07 61.6351 59.2287 62.1391 59.546C62.6431 59.854 63.0304 60.2787 63.3011 60.82C63.5811 61.3613 63.7211 61.9587 63.7211 62.612C63.7211 63.2653 63.5811 63.8627 63.3011 64.404C63.0304 64.9453 62.6431 65.3747 62.1391 65.692C61.6351 66.0093 61.0471 66.168 60.3751 66.168ZM60.3751 65.23C60.8418 65.23 61.2431 65.1133 61.5791 64.88C61.9151 64.6373 62.1718 64.3153 62.3491 63.914C62.5264 63.5127 62.6151 63.0787 62.6151 62.612C62.6151 62.1453 62.5264 61.716 62.3491 61.324C62.1718 60.9227 61.9151 60.6053 61.5791 60.372C61.2431 60.1293 60.8418 60.008 60.3751 60.008C59.9084 60.008 59.5024 60.1293 59.1571 60.372C58.8211 60.6053 58.5644 60.9227 58.3871 61.324C58.2098 61.716 58.1211 62.1453 58.1211 62.612C58.1211 63.0787 58.2098 63.5127 58.3871 63.914C58.5644 64.3153 58.8211 64.6373 59.1571 64.88C59.5024 65.1133 59.9084 65.23 60.3751 65.23ZM65.4328 68.576V59.238H66.4828V60.246C66.7348 59.8913 67.0615 59.6067 67.4628 59.392C67.8641 59.1773 68.2981 59.07 68.7648 59.07C69.3528 59.07 69.8755 59.2147 70.3328 59.504C70.7901 59.784 71.1448 60.1947 71.3968 60.736C71.6488 61.268 71.7748 61.8933 71.7748 62.612C71.7748 63.3307 71.6488 63.9607 71.3968 64.502C71.1448 65.034 70.7901 65.4447 70.3328 65.734C69.8755 66.0233 69.3528 66.168 68.7648 66.168C68.3075 66.168 67.8781 66.0653 67.4768 65.86C67.0848 65.6547 66.7535 65.3607 66.4828 64.978V68.576H65.4328ZM70.6688 62.612C70.6688 61.8467 70.4728 61.2213 70.0808 60.736C69.6888 60.2507 69.1615 60.008 68.4988 60.008C68.0975 60.008 67.7055 60.1153 67.3228 60.33C66.9495 60.5353 66.6695 60.7873 66.4828 61.086V64.138C66.6695 64.446 66.9495 64.7073 67.3228 64.922C67.7055 65.1273 68.0975 65.23 68.4988 65.23C69.1615 65.23 69.6888 64.9873 70.0808 64.502C70.4728 64.0073 70.6688 63.3773 70.6688 62.612ZM81.6453 65.048C81.3653 65.3653 81.0106 65.6313 80.5813 65.846C80.1613 66.0607 79.7133 66.168 79.2373 66.168C77.7999 66.168 77.0813 65.4493 77.0813 64.012V59.238H78.1313V63.69C78.1313 64.25 78.2573 64.6467 78.5093 64.88C78.7706 65.1133 79.1486 65.23 79.6433 65.23C80.0353 65.23 80.4133 65.132 80.7773 64.936C81.1506 64.74 81.4399 64.4973 81.6453 64.208V59.238H82.6953V66H81.6453V65.048ZM84.7922 68.576V59.238H85.8422V60.246C86.0942 59.8913 86.4209 59.6067 86.8222 59.392C87.2235 59.1773 87.6575 59.07 88.1242 59.07C88.7122 59.07 89.2349 59.2147 89.6922 59.504C90.1495 59.784 90.5042 60.1947 90.7562 60.736C91.0082 61.268 91.1342 61.8933 91.1342 62.612C91.1342 63.3307 91.0082 63.9607 90.7562 64.502C90.5042 65.034 90.1495 65.4447 89.6922 65.734C89.2349 66.0233 88.7122 66.168 88.1242 66.168C87.6669 66.168 87.2375 66.0653 86.8362 65.86C86.4442 65.6547 86.1129 65.3607 85.8422 64.978V68.576H84.7922ZM90.0282 62.612C90.0282 61.8467 89.8322 61.2213 89.4402 60.736C89.0482 60.2507 88.5209 60.008 87.8582 60.008C87.4569 60.008 87.0649 60.1153 86.6822 60.33C86.3089 60.5353 86.0289 60.7873 85.8422 61.086V64.138C86.0289 64.446 86.3089 64.7073 86.6822 64.922C87.0649 65.1273 87.4569 65.23 87.8582 65.23C88.5209 65.23 89.0482 64.9873 89.4402 64.502C89.8322 64.0073 90.0282 63.3773 90.0282 62.612ZM101.341 64.992C101.079 65.3467 100.748 65.6313 100.347 65.846C99.9453 66.0607 99.516 66.168 99.0586 66.168C98.4706 66.168 97.948 66.028 97.4906 65.748C97.0426 65.4587 96.688 65.048 96.4266 64.516C96.1746 63.9747 96.0486 63.3447 96.0486 62.626C96.0486 61.9167 96.1746 61.296 96.4266 60.764C96.6786 60.2227 97.0333 59.8073 97.4906 59.518C97.948 59.2193 98.4706 59.07 99.0586 59.07C99.5066 59.07 99.9266 59.1773 100.319 59.392C100.72 59.5973 101.061 59.8867 101.341 60.26V59.238H102.391V66H101.341V64.992ZM101.341 61.1C101.145 60.792 100.855 60.5353 100.473 60.33C100.099 60.1153 99.712 60.008 99.3106 60.008C98.648 60.008 98.1206 60.2553 97.7286 60.75C97.3366 61.2353 97.1406 61.8607 97.1406 62.626C97.1406 63.3913 97.3366 64.0167 97.7286 64.502C98.1206 64.9873 98.648 65.23 99.3106 65.23C99.7213 65.23 100.113 65.1273 100.487 64.922C100.86 64.7167 101.145 64.4647 101.341 64.166V61.1ZM112.655 61.408C112.655 60.9693 112.553 60.6287 112.347 60.386C112.142 60.134 111.829 60.008 111.409 60.008C111.073 60.008 110.737 60.1107 110.401 60.316C110.065 60.5213 109.804 60.764 109.617 61.044V66H108.567V61.408C108.567 60.4747 108.152 60.008 107.321 60.008C106.995 60.008 106.663 60.1107 106.327 60.316C106.001 60.5213 105.739 60.7687 105.543 61.058V66H104.493V59.238H105.543V60.218C105.711 59.9567 106.005 59.7 106.425 59.448C106.845 59.196 107.279 59.07 107.727 59.07C108.222 59.07 108.623 59.1867 108.931 59.42C109.239 59.6533 109.445 59.9567 109.547 60.33C109.753 59.994 110.065 59.7 110.485 59.448C110.905 59.196 111.349 59.07 111.815 59.07C112.431 59.07 112.898 59.2427 113.215 59.588C113.542 59.9333 113.705 60.442 113.705 61.114V66H112.655V61.408ZM118.754 66.168C118.082 66.168 117.494 66.0093 116.99 65.692C116.486 65.3747 116.094 64.9453 115.814 64.404C115.543 63.8627 115.408 63.2653 115.408 62.612C115.408 61.9587 115.543 61.3613 115.814 60.82C116.094 60.2787 116.486 59.854 116.99 59.546C117.494 59.2287 118.082 59.07 118.754 59.07C119.426 59.07 120.014 59.2287 120.518 59.546C121.022 59.854 121.409 60.2787 121.68 60.82C121.96 61.3613 122.1 61.9587 122.1 62.612C122.1 63.2653 121.96 63.8627 121.68 64.404C121.409 64.9453 121.022 65.3747 120.518 65.692C120.014 66.0093 119.426 66.168 118.754 66.168ZM118.754 65.23C119.221 65.23 119.622 65.1133 119.958 64.88C120.294 64.6373 120.551 64.3153 120.728 63.914C120.905 63.5127 120.994 63.0787 120.994 62.612C120.994 62.1453 120.905 61.716 120.728 61.324C120.551 60.9227 120.294 60.6053 119.958 60.372C119.622 60.1293 119.221 60.008 118.754 60.008C118.287 60.008 117.881 60.1293 117.536 60.372C117.2 60.6053 116.943 60.9227 116.766 61.324C116.589 61.716 116.5 62.1453 116.5 62.612C116.5 63.0787 116.589 63.5127 116.766 63.914C116.943 64.3153 117.2 64.6373 117.536 64.88C117.881 65.1133 118.287 65.23 118.754 65.23ZM128.376 65.048C128.096 65.3653 127.741 65.6313 127.312 65.846C126.892 66.0607 126.444 66.168 125.968 66.168C124.53 66.168 123.812 65.4493 123.812 64.012V59.238H124.862V63.69C124.862 64.25 124.988 64.6467 125.24 64.88C125.501 65.1133 125.879 65.23 126.374 65.23C126.766 65.23 127.144 65.132 127.508 64.936C127.881 64.74 128.17 64.4973 128.376 64.208V59.238H129.426V66H128.376V65.048ZM136.087 61.576C136.087 61.0067 135.956 60.6053 135.695 60.372C135.433 60.1293 135.06 60.008 134.575 60.008C134.183 60.008 133.8 60.1107 133.427 60.316C133.063 60.5213 132.778 60.7687 132.573 61.058V66H131.523V59.238H132.573V60.218C132.834 59.91 133.184 59.644 133.623 59.42C134.061 59.1867 134.514 59.07 134.981 59.07C136.418 59.07 137.137 59.798 137.137 61.254V66H136.087V61.576ZM140.942 66.168C140.447 66.168 140.074 66.0327 139.822 65.762C139.57 65.4913 139.444 65.0993 139.444 64.586V60.162H138.324V59.238H139.444V57.39H140.494V59.238H141.866V60.162H140.494V64.362C140.494 64.6233 140.55 64.8333 140.662 64.992C140.783 65.1507 140.956 65.23 141.18 65.23C141.32 65.23 141.455 65.2067 141.586 65.16C141.716 65.104 141.819 65.034 141.894 64.95L142.202 65.734C141.894 66.0233 141.474 66.168 140.942 66.168Z" fill="black"/>
<path d="M252 55C248.687 55 246 57.6866 246 61C246 64.3134 248.687 67 252 67C255.313 67 258 64.3134 258 61C258 57.6866 255.313 55 252 55ZM252 65.9821C249.249 65.9821 247.018 63.7509 247.018 61C247.018 58.2491 249.249 56.0179 252 56.0179C254.751 56.0179 256.982 58.2491 256.982 61C256.982 63.7509 254.751 65.9821 252 65.9821Z" fill="black" stroke="black" stroke-width="0.3"/>
<path d="M252 56.0176C249.249 56.0176 247.018 58.2488 247.018 60.9997C247.018 63.7506 249.249 65.9819 252 65.9819C254.751 65.9819 256.982 63.7506 256.982 60.9997C256.982 58.2488 254.751 56.0176 252 56.0176ZM252 64.4819C251.704 64.4819 251.464 64.2421 251.464 63.9461C251.464 63.6502 251.704 63.4104 252 63.4104C252.296 63.4104 252.536 63.6502 252.536 63.9461C252.536 64.2421 252.296 64.4819 252 64.4819ZM252.843 61.5421C252.721 61.589 252.617 61.6713 252.543 61.7783C252.469 61.8853 252.429 62.0121 252.429 62.1421V62.4461C252.429 62.5051 252.381 62.5533 252.322 62.5533H251.679C251.62 62.5533 251.572 62.5051 251.572 62.4461V62.1582C251.572 61.8488 251.661 61.5435 251.838 61.289C252.011 61.0399 252.252 60.8497 252.536 60.7412C252.991 60.5658 253.286 60.1841 253.286 59.7676C253.286 59.177 252.709 58.6961 252 58.6961C251.292 58.6961 250.714 59.177 250.714 59.7676V59.8694C250.714 59.9283 250.666 59.9765 250.607 59.9765H249.964C249.906 59.9765 249.857 59.9283 249.857 59.8694V59.7676C249.857 59.2412 250.088 58.7497 250.506 58.3841C250.907 58.0319 251.438 57.839 252 57.839C252.563 57.839 253.093 58.0332 253.495 58.3841C253.913 58.7497 254.143 59.2412 254.143 59.7676C254.143 60.5417 253.633 61.2381 252.843 61.5421Z" stroke="black" stroke-width="0.3"/>
<path d="M251.464 63.946C251.464 64.0881 251.521 64.2244 251.621 64.3248C251.721 64.4253 251.858 64.4817 252 64.4817C252.142 64.4817 252.278 64.4253 252.379 64.3248C252.479 64.2244 252.536 64.0881 252.536 63.946C252.536 63.8039 252.479 63.6677 252.379 63.5672C252.278 63.4667 252.142 63.4103 252 63.4103C251.858 63.4103 251.721 63.4667 251.621 63.5672C251.521 63.6677 251.464 63.8039 251.464 63.946ZM253.494 58.384C253.093 58.0331 252.562 57.8389 252 57.8389C251.437 57.8389 250.907 58.0317 250.505 58.384C250.087 58.7496 249.857 59.2411 249.857 59.7674V59.8692C249.857 59.9282 249.905 59.9764 249.964 59.9764H250.607C250.666 59.9764 250.714 59.9282 250.714 59.8692V59.7674C250.714 59.1768 251.291 58.696 252 58.696C252.708 58.696 253.286 59.1768 253.286 59.7674C253.286 60.184 252.991 60.5657 252.536 60.7411C252.252 60.8496 252.011 61.0398 251.838 61.2889C251.661 61.5433 251.571 61.8487 251.571 62.1581V62.446C251.571 62.5049 251.619 62.5532 251.678 62.5532H252.321C252.38 62.5532 252.428 62.5049 252.428 62.446V62.142C252.429 62.012 252.469 61.8852 252.543 61.7782C252.617 61.6711 252.721 61.5888 252.842 61.542C253.632 61.238 254.143 60.5415 254.143 59.7674C254.143 59.2411 253.912 58.7496 253.494 58.384Z" fill="black" stroke="black" stroke-width="0.3"/>
<rect x="50" y="84" width="212" height="48" rx="12" fill="white"/>
<path d="M71.616 110.424C71.616 111.133 71.3733 111.745 70.888 112.258C70.4027 112.771 69.656 113.065 68.648 113.14V114.4H67.794V113.154C67.1033 113.117 66.4873 112.967 65.946 112.706C65.4047 112.445 64.952 112.104 64.588 111.684L65.288 110.802C65.5867 111.138 65.9507 111.427 66.38 111.67C66.8093 111.903 67.2807 112.048 67.794 112.104V108.702C67.1967 108.543 66.6973 108.375 66.296 108.198C65.8947 108.021 65.5587 107.764 65.288 107.428C65.0173 107.083 64.882 106.644 64.882 106.112C64.882 105.636 65.008 105.211 65.26 104.838C65.512 104.455 65.8573 104.152 66.296 103.928C66.7347 103.695 67.234 103.559 67.794 103.522V102.248H68.648V103.55C69.7773 103.643 70.6967 104.068 71.406 104.824L70.706 105.678C70.1833 105.09 69.4973 104.735 68.648 104.614V107.652C69.2547 107.82 69.7633 108.002 70.174 108.198C70.5847 108.394 70.9253 108.674 71.196 109.038C71.476 109.393 71.616 109.855 71.616 110.424ZM66.086 106.042C66.086 106.406 66.2307 106.691 66.52 106.896C66.8187 107.092 67.2433 107.269 67.794 107.428V104.572C67.29 104.6 66.8793 104.749 66.562 105.02C66.2447 105.291 66.086 105.631 66.086 106.042ZM68.648 112.09C69.264 112.043 69.712 111.866 69.992 111.558C70.2813 111.25 70.426 110.905 70.426 110.522C70.426 110.093 70.272 109.766 69.964 109.542C69.6653 109.309 69.2267 109.103 68.648 108.926V112.09Z" fill="black"/>
<path d="M81.492 105.202L79.994 106.784L79.294 106.07L81.632 103.662H82.654V113H81.492V105.202ZM84.4581 108.338C84.4581 107.526 84.5841 106.756 84.8361 106.028C85.0881 105.291 85.4801 104.689 86.0121 104.222C86.5441 103.755 87.2161 103.522 88.0281 103.522C88.8308 103.522 89.4981 103.755 90.0301 104.222C90.5715 104.689 90.9681 105.291 91.2201 106.028C91.4721 106.756 91.5981 107.526 91.5981 108.338C91.5981 109.15 91.4721 109.925 91.2201 110.662C90.9681 111.39 90.5715 111.992 90.0301 112.468C89.4981 112.935 88.8308 113.168 88.0281 113.168C87.2255 113.168 86.5535 112.935 86.0121 112.468C85.4801 111.992 85.0881 111.39 84.8361 110.662C84.5841 109.925 84.4581 109.15 84.4581 108.338ZM90.4081 108.338C90.4081 107.283 90.2168 106.392 89.8341 105.664C89.4515 104.927 88.8495 104.558 88.0281 104.558C87.2068 104.558 86.6048 104.927 86.2221 105.664C85.8395 106.392 85.6481 107.283 85.6481 108.338C85.6481 109.402 85.8395 110.303 86.2221 111.04C86.6048 111.768 87.2068 112.132 88.0281 112.132C88.8495 112.132 89.4515 111.768 89.8341 111.04C90.2168 110.303 90.4081 109.402 90.4081 108.338ZM93.0304 108.338C93.0304 107.526 93.1564 106.756 93.4084 106.028C93.6604 105.291 94.0524 104.689 94.5844 104.222C95.1164 103.755 95.7884 103.522 96.6004 103.522C97.4031 103.522 98.0704 103.755 98.6024 104.222C99.1437 104.689 99.5404 105.291 99.7924 106.028C100.044 106.756 100.17 107.526 100.17 108.338C100.17 109.15 100.044 109.925 99.7924 110.662C99.5404 111.39 99.1437 111.992 98.6024 112.468C98.0704 112.935 97.4031 113.168 96.6004 113.168C95.7977 113.168 95.1257 112.935 94.5844 112.468C94.0524 111.992 93.6604 111.39 93.4084 110.662C93.1564 109.925 93.0304 109.15 93.0304 108.338ZM98.9804 108.338C98.9804 107.283 98.7891 106.392 98.4064 105.664C98.0237 104.927 97.4217 104.558 96.6004 104.558C95.7791 104.558 95.1771 104.927 94.7944 105.664C94.4117 106.392 94.2204 107.283 94.2204 108.338C94.2204 109.402 94.4117 110.303 94.7944 111.04C95.1771 111.768 95.7791 112.132 96.6004 112.132C97.4217 112.132 98.0237 111.768 98.4064 111.04C98.7891 110.303 98.9804 109.402 98.9804 108.338ZM101.603 108.338C101.603 107.526 101.729 106.756 101.981 106.028C102.233 105.291 102.625 104.689 103.157 104.222C103.689 103.755 104.361 103.522 105.173 103.522C105.975 103.522 106.643 103.755 107.175 104.222C107.716 104.689 108.113 105.291 108.365 106.028C108.617 106.756 108.743 107.526 108.743 108.338C108.743 109.15 108.617 109.925 108.365 110.662C108.113 111.39 107.716 111.992 107.175 112.468C106.643 112.935 105.975 113.168 105.173 113.168C104.37 113.168 103.698 112.935 103.157 112.468C102.625 111.992 102.233 111.39 101.981 110.662C101.729 109.925 101.603 109.15 101.603 108.338ZM107.553 108.338C107.553 107.283 107.361 106.392 106.979 105.664C106.596 104.927 105.994 104.558 105.173 104.558C104.351 104.558 103.749 104.927 103.367 105.664C102.984 106.392 102.793 107.283 102.793 108.338C102.793 109.402 102.984 110.303 103.367 111.04C103.749 111.768 104.351 112.132 105.173 112.132C105.994 112.132 106.596 111.768 106.979 111.04C107.361 110.303 107.553 109.402 107.553 108.338Z" fill="black"/>
<rect x="50.5" y="84.5" width="211" height="47" rx="11.5" stroke="black" stroke-opacity="0.1"/>
<path d="M66.616 170.424C66.616 171.133 66.3733 171.745 65.888 172.258C65.4027 172.771 64.656 173.065 63.648 173.14V174.4H62.794V173.154C62.1033 173.117 61.4873 172.967 60.946 172.706C60.4047 172.445 59.952 172.104 59.588 171.684L60.288 170.802C60.5867 171.138 60.9507 171.427 61.38 171.67C61.8093 171.903 62.2807 172.048 62.794 172.104V168.702C62.1967 168.543 61.6973 168.375 61.296 168.198C60.8947 168.021 60.5587 167.764 60.288 167.428C60.0173 167.083 59.882 166.644 59.882 166.112C59.882 165.636 60.008 165.211 60.26 164.838C60.512 164.455 60.8573 164.152 61.296 163.928C61.7347 163.695 62.234 163.559 62.794 163.522V162.248H63.648V163.55C64.7773 163.643 65.6967 164.068 66.406 164.824L65.706 165.678C65.1833 165.09 64.4973 164.735 63.648 164.614V167.652C64.2547 167.82 64.7633 168.002 65.174 168.198C65.5847 168.394 65.9253 168.674 66.196 169.038C66.476 169.393 66.616 169.855 66.616 170.424ZM61.086 166.042C61.086 166.406 61.2307 166.691 61.52 166.896C61.8187 167.092 62.2433 167.269 62.794 167.428V164.572C62.29 164.6 61.8793 164.749 61.562 165.02C61.2447 165.291 61.086 165.631 61.086 166.042ZM63.648 172.09C64.264 172.043 64.712 171.866 64.992 171.558C65.2813 171.25 65.426 170.905 65.426 170.522C65.426 170.093 65.272 169.766 64.964 169.542C64.6653 169.309 64.2267 169.103 63.648 168.926V172.09ZM68.9368 170.9C69.5808 171.721 70.4395 172.132 71.5128 172.132C72.1475 172.132 72.6655 171.941 73.0668 171.558C73.4682 171.175 73.6688 170.699 73.6688 170.13C73.6688 169.523 73.4682 169.038 73.0668 168.674C72.6748 168.301 72.1615 168.114 71.5268 168.114C70.6868 168.114 69.9682 168.408 69.3708 168.996L68.5168 168.702V163.662H74.2288V164.698H69.6788V167.946C69.9215 167.703 70.2342 167.503 70.6168 167.344C70.9995 167.185 71.4148 167.106 71.8628 167.106C72.3948 167.106 72.8848 167.223 73.3328 167.456C73.7902 167.689 74.1542 168.035 74.4248 168.492C74.6955 168.94 74.8308 169.472 74.8308 170.088C74.8308 170.704 74.6862 171.245 74.3968 171.712C74.1075 172.179 73.7108 172.538 73.2068 172.79C72.7028 173.042 72.1382 173.168 71.5128 173.168C70.7568 173.168 70.1082 173.042 69.5668 172.79C69.0348 172.529 68.5868 172.155 68.2228 171.67L68.9368 170.9ZM78.7766 169.962L77.6566 171.068V173H76.6066V163.662H77.6566V169.836L81.2126 166.238H82.5426L79.5466 169.304L82.5566 173H81.2126L78.7766 169.962Z" fill="black"/>
<path d="M58 148.5H84V147.5H58V148.5ZM91.5 156V180H92.5V156H91.5ZM84 187.5H58V188.5H84V187.5ZM50.5 180V156H49.5V180H50.5ZM58 187.5C53.8579 187.5 50.5 184.142 50.5 180H49.5C49.5 184.694 53.3056 188.5 58 188.5V187.5ZM91.5 180C91.5 184.142 88.1421 187.5 84 187.5V188.5C88.6944 188.5 92.5 184.694 92.5 180H91.5ZM84 148.5C88.1421 148.5 91.5 151.858 91.5 156H92.5C92.5 151.306 88.6944 147.5 84 147.5V148.5ZM58 147.5C53.3056 147.5 49.5 151.306 49.5 156H50.5C50.5 151.858 53.8579 148.5 58 148.5V147.5Z" fill="black" fill-opacity="0.1"/>
<path d="M121.116 170.424C121.116 171.133 120.873 171.745 120.388 172.258C119.903 172.771 119.156 173.065 118.148 173.14V174.4H117.294V173.154C116.603 173.117 115.987 172.967 115.446 172.706C114.905 172.445 114.452 172.104 114.088 171.684L114.788 170.802C115.087 171.138 115.451 171.427 115.88 171.67C116.309 171.903 116.781 172.048 117.294 172.104V168.702C116.697 168.543 116.197 168.375 115.796 168.198C115.395 168.021 115.059 167.764 114.788 167.428C114.517 167.083 114.382 166.644 114.382 166.112C114.382 165.636 114.508 165.211 114.76 164.838C115.012 164.455 115.357 164.152 115.796 163.928C116.235 163.695 116.734 163.559 117.294 163.522V162.248H118.148V163.55C119.277 163.643 120.197 164.068 120.906 164.824L120.206 165.678C119.683 165.09 118.997 164.735 118.148 164.614V167.652C118.755 167.82 119.263 168.002 119.674 168.198C120.085 168.394 120.425 168.674 120.696 169.038C120.976 169.393 121.116 169.855 121.116 170.424ZM115.586 166.042C115.586 166.406 115.731 166.691 116.02 166.896C116.319 167.092 116.743 167.269 117.294 167.428V164.572C116.79 164.6 116.379 164.749 116.062 165.02C115.745 165.291 115.586 165.631 115.586 166.042ZM118.148 172.09C118.764 172.043 119.212 171.866 119.492 171.558C119.781 171.25 119.926 170.905 119.926 170.522C119.926 170.093 119.772 169.766 119.464 169.542C119.165 169.309 118.727 169.103 118.148 168.926V172.09ZM124.291 165.202L122.793 166.784L122.093 166.07L124.431 163.662H125.453V173H124.291V165.202ZM129.763 169.962L128.643 171.068V173H127.593V163.662H128.643V169.836L132.199 166.238H133.529L130.533 169.304L133.543 173H132.199L129.763 169.962Z" fill="#E11C4E"/>
<path d="M110 148.5H138V147.5H110V148.5ZM145.5 156V180H146.5V156H145.5ZM138 187.5H110V188.5H138V187.5ZM102.5 180V156H101.5V180H102.5ZM110 187.5C105.858 187.5 102.5 184.142 102.5 180H101.5C101.5 184.694 105.306 188.5 110 188.5V187.5ZM145.5 180C145.5 184.142 142.142 187.5 138 187.5V188.5C142.694 188.5 146.5 184.694 146.5 180H145.5ZM138 148.5C142.142 148.5 145.5 151.858 145.5 156H146.5C146.5 151.306 142.694 147.5 138 147.5V148.5ZM110 147.5C105.306 147.5 101.5 151.306 101.5 156H102.5C102.5 151.858 105.858 148.5 110 148.5V147.5Z" fill="#E11C4E"/>
<path d="M175.116 170.424C175.116 171.133 174.873 171.745 174.388 172.258C173.903 172.771 173.156 173.065 172.148 173.14V174.4H171.294V173.154C170.603 173.117 169.987 172.967 169.446 172.706C168.905 172.445 168.452 172.104 168.088 171.684L168.788 170.802C169.087 171.138 169.451 171.427 169.88 171.67C170.309 171.903 170.781 172.048 171.294 172.104V168.702C170.697 168.543 170.197 168.375 169.796 168.198C169.395 168.021 169.059 167.764 168.788 167.428C168.517 167.083 168.382 166.644 168.382 166.112C168.382 165.636 168.508 165.211 168.76 164.838C169.012 164.455 169.357 164.152 169.796 163.928C170.235 163.695 170.734 163.559 171.294 163.522V162.248H172.148V163.55C173.277 163.643 174.197 164.068 174.906 164.824L174.206 165.678C173.683 165.09 172.997 164.735 172.148 164.614V167.652C172.755 167.82 173.263 168.002 173.674 168.198C174.085 168.394 174.425 168.674 174.696 169.038C174.976 169.393 175.116 169.855 175.116 170.424ZM169.586 166.042C169.586 166.406 169.731 166.691 170.02 166.896C170.319 167.092 170.743 167.269 171.294 167.428V164.572C170.79 164.6 170.379 164.749 170.062 165.02C169.745 165.291 169.586 165.631 169.586 166.042ZM172.148 172.09C172.764 172.043 173.212 171.866 173.492 171.558C173.781 171.25 173.926 170.905 173.926 170.522C173.926 170.093 173.772 169.766 173.464 169.542C173.165 169.309 172.727 169.103 172.148 168.926V172.09ZM177.437 170.9C178.081 171.721 178.939 172.132 180.013 172.132C180.647 172.132 181.165 171.941 181.567 171.558C181.968 171.175 182.169 170.699 182.169 170.13C182.169 169.523 181.968 169.038 181.567 168.674C181.175 168.301 180.661 168.114 180.027 168.114C179.187 168.114 178.468 168.408 177.871 168.996L177.017 168.702V163.662H182.729V164.698H178.179V167.946C178.421 167.703 178.734 167.503 179.117 167.344C179.499 167.185 179.915 167.106 180.363 167.106C180.895 167.106 181.385 167.223 181.833 167.456C182.29 167.689 182.654 168.035 182.925 168.492C183.195 168.94 183.331 169.472 183.331 170.088C183.331 170.704 183.186 171.245 182.897 171.712C182.607 172.179 182.211 172.538 181.707 172.79C181.203 173.042 180.638 173.168 180.013 173.168C179.257 173.168 178.608 173.042 178.067 172.79C177.535 172.529 177.087 172.155 176.723 171.67L177.437 170.9ZM187.277 169.962L186.157 171.068V173H185.107V163.662H186.157V169.836L189.713 166.238H191.043L188.047 169.304L191.057 173H189.713L187.277 169.962Z" fill="black"/>
<path d="M164 148.5H195V147.5H164V148.5ZM202.5 156V180H203.5V156H202.5ZM195 187.5H164V188.5H195V187.5ZM156.5 180V156H155.5V180H156.5ZM164 187.5C159.858 187.5 156.5 184.142 156.5 180H155.5C155.5 184.694 159.306 188.5 164 188.5V187.5ZM202.5 180C202.5 184.142 199.142 187.5 195 187.5V188.5C199.694 188.5 203.5 184.694 203.5 180H202.5ZM195 148.5C199.142 148.5 202.5 151.858 202.5 156H203.5C203.5 151.306 199.694 147.5 195 147.5V148.5ZM164 147.5C159.306 147.5 155.5 151.306 155.5 156H156.5C156.5 151.858 159.858 148.5 164 148.5V147.5Z" fill="black" fill-opacity="0.1"/>
<path d="M228.616 170.424C228.616 171.133 228.373 171.745 227.888 172.258C227.403 172.771 226.656 173.065 225.648 173.14V174.4H224.794V173.154C224.103 173.117 223.487 172.967 222.946 172.706C222.405 172.445 221.952 172.104 221.588 171.684L222.288 170.802C222.587 171.138 222.951 171.427 223.38 171.67C223.809 171.903 224.281 172.048 224.794 172.104V168.702C224.197 168.543 223.697 168.375 223.296 168.198C222.895 168.021 222.559 167.764 222.288 167.428C222.017 167.083 221.882 166.644 221.882 166.112C221.882 165.636 222.008 165.211 222.26 164.838C222.512 164.455 222.857 164.152 223.296 163.928C223.735 163.695 224.234 163.559 224.794 163.522V162.248H225.648V163.55C226.777 163.643 227.697 164.068 228.406 164.824L227.706 165.678C227.183 165.09 226.497 164.735 225.648 164.614V167.652C226.255 167.82 226.763 168.002 227.174 168.198C227.585 168.394 227.925 168.674 228.196 169.038C228.476 169.393 228.616 169.855 228.616 170.424ZM223.086 166.042C223.086 166.406 223.231 166.691 223.52 166.896C223.819 167.092 224.243 167.269 224.794 167.428V164.572C224.29 164.6 223.879 164.749 223.562 165.02C223.245 165.291 223.086 165.631 223.086 166.042ZM225.648 172.09C226.264 172.043 226.712 171.866 226.992 171.558C227.281 171.25 227.426 170.905 227.426 170.522C227.426 170.093 227.272 169.766 226.964 169.542C226.665 169.309 226.227 169.103 225.648 168.926V172.09ZM231.791 165.202L230.293 166.784L229.593 166.07L231.931 163.662H232.953V173H231.791V165.202ZM234.757 168.338C234.757 167.526 234.883 166.756 235.135 166.028C235.387 165.291 235.779 164.689 236.311 164.222C236.843 163.755 237.515 163.522 238.327 163.522C239.13 163.522 239.797 163.755 240.329 164.222C240.87 164.689 241.267 165.291 241.519 166.028C241.771 166.756 241.897 167.526 241.897 168.338C241.897 169.15 241.771 169.925 241.519 170.662C241.267 171.39 240.87 171.992 240.329 172.468C239.797 172.935 239.13 173.168 238.327 173.168C237.524 173.168 236.852 172.935 236.311 172.468C235.779 171.992 235.387 171.39 235.135 170.662C234.883 169.925 234.757 169.15 234.757 168.338ZM240.707 168.338C240.707 167.283 240.516 166.392 240.133 165.664C239.75 164.927 239.148 164.558 238.327 164.558C237.506 164.558 236.904 164.927 236.521 165.664C236.138 166.392 235.947 167.283 235.947 168.338C235.947 169.402 236.138 170.303 236.521 171.04C236.904 171.768 237.506 172.132 238.327 172.132C239.148 172.132 239.75 171.768 240.133 171.04C240.516 170.303 240.707 169.402 240.707 168.338ZM251.687 165.23L248.509 173H248.033L244.869 165.23V173H243.707V163.662H245.373L248.271 170.774L251.183 163.662H252.849V173H251.687V165.23Z" fill="black"/>
<path d="M221 148.5H254V147.5H221V148.5ZM261.5 156V180H262.5V156H261.5ZM254 187.5H221V188.5H254V187.5ZM213.5 180V156H212.5V180H213.5ZM221 187.5C216.858 187.5 213.5 184.142 213.5 180H212.5C212.5 184.694 216.306 188.5 221 188.5V187.5ZM261.5 180C261.5 184.142 258.142 187.5 254 187.5V188.5C258.694 188.5 262.5 184.694 262.5 180H261.5ZM254 148.5C258.142 148.5 261.5 151.858 261.5 156H262.5C262.5 151.306 258.694 147.5 254 147.5V148.5ZM221 147.5C216.306 147.5 212.5 151.306 212.5 156H213.5C213.5 151.858 216.858 148.5 221 148.5V147.5Z" fill="black" fill-opacity="0.1"/>
</g>
</g>
<defs>
<filter id="filter0_d_13531_57336" x="1" y="16" width="310" height="322" filterUnits="userSpaceOnUse" color-interpolation-filters="sRGB">
<feFlood flood-opacity="0" result="BackgroundImageFix"/>
<feColorMatrix in="SourceAlpha" type="matrix" values="0 0 0 0 0 0 0 0 0 0 0 0 0 0 0 0 0 0 127 0" result="hardAlpha"/>
<feOffset dy="15"/>
<feGaussianBlur stdDeviation="14.5"/>
<feComposite in2="hardAlpha" operator="out"/>
<feColorMatrix type="matrix" values="0 0 0 0 0 0 0 0 0 0 0 0 0 0 0 0 0 0 0.11 0"/>
<feBlend mode="normal" in2="BackgroundImageFix" result="effect1_dropShadow_13531_57336"/>
<feBlend mode="normal" in="SourceGraphic" in2="effect1_dropShadow_13531_57336" result="shape"/>
</filter>
</defs>
</svg>
