<svg width="376" height="103" viewBox="0 0 376 103" fill="none" xmlns="http://www.w3.org/2000/svg">
<g clip-path="url(#clip0_13453_40163)">
<path d="M188.48 19.2948C188.48 20.1013 188.243 20.8898 187.8 21.5604C187.357 22.231 186.727 22.7537 185.99 23.0624C185.252 23.371 184.441 23.4518 183.659 23.2944C182.876 23.1371 182.158 22.7487 181.594 22.1784C181.029 21.6081 180.645 20.8814 180.49 20.0904C180.334 19.2993 180.414 18.4794 180.719 17.7342C181.024 16.9891 181.541 16.3522 182.205 15.9041C182.868 15.456 183.648 15.2168 184.446 15.2168C185.516 15.2168 186.542 15.6464 187.298 16.4112C188.055 17.176 188.48 18.2132 188.48 19.2948" fill="#E5445A"/>
<path d="M188.48 31.8258C188.48 32.6324 188.243 33.4208 187.8 34.0914C187.357 34.762 186.727 35.2847 185.99 35.5934C185.252 35.902 184.441 35.9828 183.659 35.8254C182.876 35.6681 182.158 35.2797 181.594 34.7094C181.029 34.1391 180.645 33.4124 180.49 32.6214C180.334 31.8303 180.414 31.0104 180.719 30.2652C181.024 29.5201 181.541 28.8832 182.205 28.4351C182.868 27.987 183.648 27.7478 184.446 27.7478C185.516 27.7478 186.542 28.1774 187.298 28.9422C188.055 29.707 188.48 30.7442 188.48 31.8258" fill="#7CEFEC"/>
<path d="M0 0.116455H29.8728L27.1298 8.7385H19.3793V38.8749V40.6809H9.72709V8.7385H1.1525H0V0.116455Z" fill="white"/>
<path d="M79.6267 0.116577H110.168L107.448 8.73862H99.0059V38.875V40.7043H89.348V8.73862H80.7619H79.6094L79.6267 0.116577Z" fill="white"/>
<path d="M31.6997 13.9059V13.0262H41.277V13.9059L41.2943 38.1467L41.2654 40.6925H31.7516V39.3118L31.6997 13.9059Z" fill="white"/>
<path d="M45.8867 1.91666V0H47.7941H53.7583H55.3545V1.66033L55.366 18.8986L64.9318 9.49591H76.353L64.3613 21.258L77.7936 40.6926H67.254L58.2876 27.2177L55.4467 30.0082L55.4525 40.7101L45.9213 40.6926V39.8304L45.8867 1.91666Z" fill="white"/>
<path d="M144.178 1.91666V0H146.085H152.049H153.646V1.66033L153.657 18.8986L163.229 9.49591H174.644L162.652 21.258L176.085 40.6926H165.545L156.584 27.2177L153.738 30.0082L153.743 40.7101L144.212 40.6926V39.8304L144.178 1.91666Z" fill="white"/>
<path d="M138.761 17.6053C137.942 15.6461 136.757 13.8656 135.269 12.3622C133.782 10.8656 132.02 9.67807 130.082 8.86679L129.506 8.64541L129.299 8.56967L128.959 8.44733L128.694 8.35995L128.417 8.27839L128.1 8.18518L127.985 8.15605C127.524 8.02788 127.051 7.92885 126.579 7.84729H126.533L126.031 7.77155C125.668 7.72495 125.305 7.68417 124.931 7.65504C124.66 7.65504 124.354 7.62008 124.101 7.61426H123.68H123.288C122.989 7.61426 122.712 7.61426 122.389 7.65504C121.759 7.70223 121.132 7.78586 120.511 7.90554L120.2 7.9638L119.917 8.02788C119.702 8.07449 119.489 8.12692 119.278 8.18518C117.904 8.55774 116.583 9.10796 115.348 9.8222C114.138 10.5224 113.025 11.3824 112.04 12.3797C111.057 13.373 110.203 14.4889 109.499 15.7003C108.78 16.9432 108.227 18.2774 107.856 19.6677C107.069 22.5815 107.069 25.6555 107.856 28.5693C108.605 31.3326 110.056 33.8494 112.066 35.8691C114.076 37.8888 116.575 39.341 119.312 40.0809L119.998 40.2499L120.234 40.2965L120.695 40.3897L120.972 40.4363C121.127 40.4363 121.289 40.4829 121.444 40.5062L121.686 40.5412C121.936 40.5684 122.19 40.5917 122.447 40.6111C122.764 40.6111 123.087 40.646 123.409 40.6519H124.02C124.343 40.6519 124.666 40.6519 124.983 40.6111C125.3 40.5703 125.588 40.5528 125.887 40.5179C126.077 40.5179 126.262 40.4654 126.464 40.4305L126.775 40.378L127.178 40.2965L127.426 40.2441L128.083 40.0809C129.44 39.7082 130.743 39.1599 131.961 38.4497C134.388 37.0335 136.404 34.9987 137.81 32.5483C139.282 29.9874 140.048 27.0745 140.028 24.1127C140.047 21.8768 139.607 19.6612 138.738 17.6053H138.761ZM131.344 26.2798C131.16 26.9547 130.891 27.6028 130.543 28.2081C130.203 28.7991 129.788 29.3434 129.31 29.8277C128.338 30.806 127.131 31.5109 125.807 31.8725C125.216 32.0353 124.609 32.1272 123.997 32.1463H123.692C123.254 32.1439 122.817 32.1089 122.384 32.0415C122.104 31.9964 121.827 31.9361 121.554 31.8609C119.553 31.3207 117.845 30.0037 116.8 28.1965C116.452 27.5911 116.183 26.943 115.999 26.2682C115.614 24.8535 115.614 23.3602 115.999 21.9455C116.181 21.2708 116.448 20.6226 116.794 20.0172C117.136 19.4269 117.552 18.8844 118.033 18.4035C118.508 17.9174 119.047 17.4998 119.635 17.1626C120.234 16.8141 120.875 16.5458 121.542 16.3645C121.825 16.2889 122.112 16.2306 122.401 16.1897C122.826 16.1192 123.256 16.0841 123.686 16.0848H124.038C126.02 16.1676 127.899 16.9991 129.304 18.4151C130.026 19.1498 130.601 20.0181 130.999 20.9726C131.422 21.9717 131.636 23.0489 131.627 24.136C131.631 24.8661 131.536 25.5933 131.344 26.2973" fill="white"/>
<path d="M41.3112 4.98092C41.3123 5.94442 41.0307 6.88662 40.5021 7.6883C39.9734 8.48998 39.2214 9.11512 38.3413 9.48464C37.4611 9.85415 36.4923 9.95143 35.5574 9.76417C34.6225 9.57691 33.7636 9.11352 33.0893 8.43263C32.415 7.75174 31.9556 6.88394 31.7693 5.93904C31.5829 4.99414 31.678 4.01459 32.0424 3.12432C32.4069 2.23405 33.0243 1.47307 33.8167 0.937654C34.609 0.402241 35.5407 0.116456 36.4937 0.116455C37.7704 0.116454 38.9948 0.628773 39.8981 1.54087C40.8014 2.45297 41.3096 3.69025 41.3112 4.98092Z" fill="white"/>
</g>
<path d="M19.9041 84.1304L30.8068 61.183H34.6215L38.3902 92.4321H34.2643L31.4349 68.937L21.7885 88.9833H18.1005L8.37916 68.937L5.54977 92.4321H1.42383L5.1925 61.183H9.0015L19.9041 84.1304Z" fill="white"/>
<path d="M60.5935 92.4326V89.1643C59.199 91.4946 56.2889 92.887 53.2348 92.887C51.8379 92.9129 50.4502 92.6534 49.155 92.1238C47.8598 91.5942 46.6838 90.8056 45.6975 89.8052C43.6345 87.7603 42.603 85.0863 42.603 81.8181C42.603 78.5499 43.6345 75.8817 45.6975 73.8369C46.6897 72.8428 47.8703 72.0615 49.1684 71.5399C50.4666 71.0183 51.8556 70.7673 53.2521 70.8017C56.3062 70.8017 59.3085 72.1125 60.6108 74.4253V71.2561H64.6445V92.4326H60.5935ZM58.4384 76.7031C57.1088 75.4943 55.3802 74.8314 53.5921 74.8447C52.6894 74.8192 51.7909 74.9789 50.951 75.3143C50.1111 75.6498 49.3472 76.154 48.7055 76.7964C48.0574 77.4466 47.5508 78.2267 47.2184 79.0864C46.886 79.9462 46.735 80.8667 46.7751 81.789C46.7474 82.726 46.9084 83.659 47.2481 84.5312C47.5879 85.4034 48.0994 86.1968 48.7516 86.8632C49.3808 87.5127 50.1348 88.025 50.9673 88.3687C51.7998 88.7123 52.6931 88.88 53.5921 88.8614C55.4212 88.9031 57.1938 88.2193 58.5306 86.9564C59.2106 86.2894 59.7423 85.4836 60.09 84.5925C60.4378 83.7015 60.5937 82.7457 60.5474 81.789C60.5934 80.835 60.4279 79.8828 60.063 79.0018C59.6981 78.1208 59.143 77.3335 58.4384 76.6973V76.7031Z" fill="white"/>
<path d="M75.5291 92.4314H71.4492V71.2549H75.5291V76.0145C76.5606 72.5191 78.491 70.8005 81.3607 70.8005C83.0203 70.8005 84.242 71.0685 84.9969 71.6161L84.3687 75.4728C83.4087 74.9862 82.3482 74.7366 81.2743 74.7445C77.4595 74.7445 75.5118 78.7352 75.5118 84.724L75.5291 92.4314Z" fill="white"/>
<path d="M93.2022 82.0915V92.4321H89.1685V59.7324H93.2022V78.6485L100.428 71.2557H105.989L97.0458 80.4137L108.173 92.4321H102.785L93.2022 82.0915Z" fill="white"/>
<path d="M130.076 83.4078H113.077C113.566 86.9032 116.263 89.1636 119.847 89.1636C122.406 89.1636 124.74 87.9402 125.863 85.9012C126.261 86.0352 126.849 86.309 127.656 86.6294L129.384 87.2644C127.656 90.888 123.91 92.8862 119.738 92.8862C118.314 92.9248 116.896 92.6717 115.571 92.1421C114.246 91.6124 113.041 90.8173 112.028 89.8044C110.005 87.7596 108.974 85.0856 108.974 81.7766C108.974 78.4676 110.005 75.8344 112.028 73.8361C113.039 72.8348 114.239 72.0498 115.557 71.5283C116.875 71.0068 118.283 70.7594 119.698 70.8009C121.08 70.7514 122.457 70.996 123.739 71.5189C125.022 72.0417 126.181 72.8312 127.143 73.8361C129.119 75.8344 130.105 78.4618 130.105 81.7766C130.126 82.3204 130.116 82.865 130.076 83.4078V83.4078ZM126.082 80.1862C125.593 76.6907 123.126 74.5177 119.744 74.5177C116.2 74.5177 113.595 76.6966 113.105 80.1862H126.082Z" fill="white"/>
<path d="M140.978 71.2555H145.449V74.7509H141.007V92.4319H136.921V74.7451H133.152V71.2497H136.921V63.2684H141.007L140.978 71.2555Z" fill="white"/>
<path d="M150.059 61.5493C150.605 61.0458 151.317 60.7666 152.056 60.7666C152.795 60.7666 153.507 61.0458 154.052 61.5493C154.317 61.7886 154.529 62.0818 154.674 62.4095C154.819 62.7373 154.894 63.0923 154.894 63.4514C154.894 63.8104 154.819 64.1655 154.674 64.4932C154.529 64.821 154.317 65.1141 154.052 65.3535C153.508 65.8595 152.795 66.1403 152.056 66.1403C151.316 66.1403 150.604 65.8595 150.059 65.3535C149.804 65.1085 149.6 64.8136 149.461 64.4865C149.322 64.1595 149.25 63.8073 149.25 63.4514C149.25 63.0954 149.322 62.7432 149.461 62.4162C149.6 62.0892 149.804 61.7942 150.059 61.5493V61.5493ZM150.059 92.4255V71.2549H154.093V92.4314L150.059 92.4255Z" fill="white"/>
<path d="M164.974 92.4311H160.894V71.2547H164.974V74.4239C166.19 72.0936 168.967 70.8003 171.526 70.8003C176.712 70.8003 179.593 74.2025 179.593 80.1855V92.4195H175.513V80.4593C175.513 76.9639 173.785 74.8375 170.903 74.8375C167.63 74.8375 164.98 76.8299 164.98 81.0011L164.974 92.4311Z" fill="white"/>
<path d="M189.29 95.4731C189.887 96.5698 190.763 97.4847 191.829 98.1221C192.894 98.7594 194.109 99.096 195.347 99.0967C200.326 99.0967 202.792 95.8809 202.792 89.4843C202.792 89.3503 202.746 89.1231 202.746 88.9833C201.536 91.3893 198.441 92.8865 195.387 92.8865C193.994 92.919 192.608 92.6664 191.314 92.1438C190.02 91.6212 188.843 90.8394 187.856 89.8455C185.787 87.8065 184.755 85.1849 184.755 81.9109C184.755 78.6368 185.787 75.922 187.856 73.883C188.841 72.8833 190.016 72.0951 191.31 71.5656C192.605 71.036 193.991 70.776 195.387 70.8012C198.441 70.8012 201.444 72.2052 202.746 74.5646V71.2556H206.78V89.2105C206.78 98.4209 202.965 103 195.341 103C193.398 103.009 191.489 102.482 189.82 101.474C188.152 100.467 186.787 99.0187 185.873 97.2849C186.098 97.1917 186.68 96.8771 187.665 96.3295L189.29 95.4731ZM200.683 76.7435C199.349 75.4803 197.578 74.7964 195.75 74.8384C194.851 74.8186 193.957 74.9852 193.123 75.3278C192.29 75.6705 191.534 76.182 190.904 76.8308C190.253 77.4894 189.741 78.2756 189.401 79.1412C189.062 80.0067 188.9 80.9334 188.927 81.8642C188.879 82.8005 189.026 83.7364 189.359 84.6115C189.691 85.4866 190.202 86.2814 190.858 86.9443C191.508 87.5728 192.276 88.0647 193.115 88.3917C193.955 88.7187 194.851 88.8742 195.75 88.8493C197.546 88.8658 199.279 88.1838 200.591 86.9443C201.289 86.3055 201.84 85.5194 202.204 84.6415C202.569 83.7636 202.738 82.8155 202.7 81.8642C202.7 79.7087 202.031 77.961 200.683 76.7435V76.7435Z" fill="white"/>
<path d="M226.027 61.1827H238.364C241.413 61.1827 243.706 62.1382 245.227 64.0432C246.806 65.9923 247.634 68.4521 247.561 70.9699C247.637 73.4917 246.808 75.9561 245.227 77.9083C243.706 79.7667 241.413 80.7222 238.364 80.7222H230.245V92.4318H226.027V61.1827ZM230.245 65.1442V76.7956H238.094C241.637 76.7956 243.389 74.2148 243.389 70.9699C243.389 67.725 241.66 65.1442 238.318 65.1442H230.245Z" fill="white"/>
<path d="M268.189 92.4321V89.1639C266.794 91.4942 263.878 92.8866 260.83 92.8866C259.433 92.9125 258.045 92.653 256.75 92.1234C255.455 91.5938 254.279 90.8052 253.293 89.8048C251.23 87.7599 250.198 85.0859 250.198 81.8177C250.198 78.5495 251.23 75.8813 253.293 73.8365C254.283 72.8445 255.461 72.0645 256.756 71.543C258.051 71.0215 259.436 70.7692 260.83 70.8013C263.878 70.8013 266.886 72.1121 268.189 74.4249V71.2557H272.222V92.4321H268.189ZM266.034 76.7027C264.703 75.4949 262.975 74.8322 261.187 74.8443C260.286 74.8195 259.388 74.9797 258.549 75.3151C257.71 75.6505 256.947 76.1543 256.306 76.796C255.657 77.4434 255.148 78.2208 254.812 79.0785C254.477 79.9363 254.322 80.8553 254.359 81.7769C254.331 82.714 254.492 83.6469 254.832 84.5191C255.172 85.3914 255.683 86.1848 256.335 86.8511C256.964 87.5006 257.719 88.0129 258.551 88.3566C259.384 88.7003 260.277 88.868 261.176 88.8493C263.005 88.8911 264.778 88.2073 266.114 86.9443C266.794 86.2774 267.326 85.4715 267.674 84.5805C268.022 83.6894 268.177 82.7337 268.131 81.7769C268.175 80.8266 268.01 79.8782 267.649 78.9998C267.287 78.1215 266.737 77.335 266.039 76.6969L266.034 76.7027Z" fill="white"/>
<path d="M283.132 92.4311H279.052V71.2547H283.132V76.0143C284.163 72.5189 286.094 70.8003 288.963 70.8003C290.623 70.8003 291.844 71.0683 292.599 71.6159L291.971 75.4725C291.011 74.9866 289.951 74.737 288.877 74.7443C285.062 74.7443 283.114 78.7349 283.114 84.7237L283.132 92.4311Z" fill="white"/>
<path d="M302.419 71.2552H306.862V74.7507H302.419V92.4317H298.339V74.7448H294.57V71.2494H298.339V63.2682H302.419V71.2552Z" fill="white"/>
<path d="M315.565 92.4311H311.485V71.2547H315.565V74.4239C316.775 72.0936 319.558 70.8003 322.117 70.8003C327.303 70.8003 330.184 74.2025 330.184 80.1855V92.4195H326.104V80.4593C326.104 76.9639 324.376 74.8375 321.494 74.8375C318.221 74.8375 315.57 76.8299 315.57 81.0011L315.565 92.4311Z" fill="white"/>
<path d="M356.431 83.4079H339.432C339.922 86.9034 342.613 89.1637 346.203 89.1637C348.761 89.1637 351.095 87.9403 352.213 85.9013C352.616 86.0353 353.198 86.3091 354.005 86.6295L355.734 87.2646C354.005 90.8881 350.265 92.8864 346.093 92.8864C344.675 92.9201 343.266 92.6646 341.948 92.1351C340.63 91.6056 339.431 90.813 338.423 89.8046C336.401 87.7597 335.369 85.0857 335.369 81.7767C335.369 78.4677 336.401 75.8345 338.423 73.8363C339.434 72.8347 340.634 72.0495 341.952 71.528C343.27 71.0065 344.678 70.7592 346.093 70.8011C347.475 70.7519 348.852 70.9967 350.134 71.5195C351.417 72.0424 352.577 72.8317 353.538 73.8363C355.509 75.8345 356.5 78.4619 356.5 81.7767C356.508 82.3214 356.485 82.866 356.431 83.4079V83.4079ZM352.438 80.1863C351.942 76.6909 349.476 74.5179 346.07 74.5179C342.526 74.5179 339.922 76.6967 339.432 80.1863H352.438Z" fill="white"/>
<path d="M365.76 92.4311H361.68V71.2547H365.76V76.0143C366.792 72.5189 368.722 70.8003 371.592 70.8003C373.251 70.8003 374.473 71.0683 375.228 71.6159L374.6 75.4725C373.64 74.9859 372.579 74.7364 371.505 74.7443C367.69 74.7443 365.743 78.7349 365.743 84.7237L365.76 92.4311Z" fill="white"/>
<defs>
<clipPath id="clip0_13453_40163">
<rect width="187.933" height="51.2546" fill="white"/>
</clipPath>
</defs>
</svg>
