<svg width="24" height="24" viewBox="0 0 24 24" fill="none" xmlns="http://www.w3.org/2000/svg">
<path d="M16.089 6.50667C16.089 6.50667 16.5424 6.95111 16.089 6.50667C15.4814 5.813 15.1466 4.92216 15.1468 4H12.4001V15.0222C12.379 15.6187 12.1271 16.1837 11.6977 16.5982C11.2683 17.0127 10.6948 17.2444 10.0979 17.2444C8.83569 17.2444 7.78681 16.2133 7.78681 14.9333C7.78681 13.4044 9.26236 12.2578 10.7824 12.7289V9.92C7.71569 9.51111 5.03125 11.8933 5.03125 14.9333C5.03125 17.8933 7.48458 20 10.089 20C12.8801 20 15.1468 17.7333 15.1468 14.9333V9.34222C16.2606 10.1421 17.5978 10.5712 18.969 10.5689V7.82222C18.969 7.82222 17.2979 7.90222 16.089 6.50667Z" fill="#000"/>
</svg>
